…
<img src="case_study_files/figure-gfm/unnamed-chunk-5-1.png" width="90%" />

``` r
nyc_airbnb %>% 
  filter(neighbourhood_group == "Manhattan") %>% 
  count(neighbourhood)
```

    ## # A tibble: 32 x 2
    ##    neighbourhood          n
    ##    <chr>              <int>
    ##  1 Battery Park City     65
    ##  2 Chelsea             1072
    ##  3 Chinatown            360
    ##  4 Civic Center          42
    ##  5 East Harlem         1048
    ##  6 East Village        1858
    ##  7 Financial District   391
    ##  8 Flatiron District     90
    ##  9 Gramercy             307
    ## 10 Greenwich Village    383
    ## # ... with 22 more rows
…
